<?xml version="1.0" encoding="UTF-8" standalone="no"?>
<!DOCTYPE svg PUBLIC "-//W3C//DTD SVG 1.1//EN"
 "http://www.w3.org/Graphics/SVG/1.1/DTD/svg11.dtd">
<!-- Generated by graphviz version 2.47.0 (20210316.0004)
 -->
<!-- Title: dependencies Pages: 1 -->
<svg width="660pt" height="211pt"
 viewBox="0.00 0.00 660.00 211.00" xmlns="http://www.w3.org/2000/svg" xmlns:xlink="http://www.w3.org/1999/xlink">
<g id="graph0" class="graph" transform="scale(1 1) rotate(0) translate(4 207)">
<title>dependencies</title>
<polygon fill="white" stroke="transparent" points="-4,4 -4,-207 656,-207 656,4 -4,4"/>
<text text-anchor="start" x="305.01" y="-42.4" font-family="Times-12" font-weight="bold" font-size="14.00">Legend</text>
<polygon fill="#ffffb3" stroke="transparent" points="92,-10 92,-30 112,-30 112,-10 92,-10"/>
<text text-anchor="start" x="115.63" y="-15.4" font-family="Times-12" font-size="14.00"> &#160;Declarations</text>
<polygon fill="#8dd3c7" stroke="transparent" points="205,-10 205,-30 225,-30 225,-10 205,-10"/>
<text text-anchor="start" x="228.73" y="-15.4" font-family="Times-12" font-size="14.00"> &#160;Module</text>
<polygon fill="#80b1d3" stroke="transparent" points="291,-10 291,-30 311,-30 311,-10 291,-10"/>
<text text-anchor="start" x="314.78" y="-15.4" font-family="Times-12" font-size="14.00"> &#160;Bootstrap</text>
<polygon fill="#fdb462" stroke="transparent" points="388,-10 388,-30 408,-30 408,-10 388,-10"/>
<text text-anchor="start" x="411.67" y="-15.4" font-family="Times-12" font-size="14.00"> &#160;Providers</text>
<polygon fill="#fb8072" stroke="transparent" points="484,-10 484,-30 504,-30 504,-10 484,-10"/>
<text text-anchor="start" x="507.73" y="-15.4" font-family="Times-12" font-size="14.00"> &#160;Exports</text>
<g id="clust1" class="cluster">
<title>cluster_DropModule</title>
<polygon fill="none" stroke="black" stroke-dasharray="1,5" points="8,-70 8,-195 644,-195 644,-70 8,-70"/>
</g>
<g id="clust6" class="cluster">
<title>cluster_DropModule_providers</title>
<polygon fill="none" stroke="black" points="16,-78 16,-130 636,-130 636,-78 16,-78"/>
</g>
<!-- DropService -->
<g id="node1" class="node">
<title>DropService</title>
<ellipse fill="#fdb462" stroke="black" cx="568" cy="-104" rx="59.67" ry="18"/>
<text text-anchor="middle" x="568" y="-99.8" font-family="Times,serif" font-size="14.00">DropService</text>
</g>
<!-- DropModule -->
<g id="node5" class="node">
<title>DropModule</title>
<polygon fill="#8dd3c7" stroke="black" points="407.32,-187 404.32,-191 383.32,-191 380.32,-187 318.68,-187 318.68,-151 407.32,-151 407.32,-187"/>
<text text-anchor="middle" x="363" y="-164.8" font-family="Times,serif" font-size="14.00">DropModule</text>
</g>
<!-- DropService&#45;&gt;DropModule -->
<g id="edge1" class="edge">
<title>DropService&#45;&gt;DropModule</title>
<path fill="none" stroke="black" d="M568,-122.11C568,-141.34 568,-169 568,-169 568,-169 417.23,-169 417.23,-169"/>
<polygon fill="black" stroke="black" points="417.23,-165.5 407.23,-169 417.23,-172.5 417.23,-165.5"/>
</g>
<!-- ItemService -->
<g id="node2" class="node">
<title>ItemService</title>
<ellipse fill="#fdb462" stroke="black" cx="432" cy="-104" rx="57.88" ry="18"/>
<text text-anchor="middle" x="432" y="-99.8" font-family="Times,serif" font-size="14.00">ItemService</text>
</g>
<!-- ItemService&#45;&gt;DropModule -->
<g id="edge2" class="edge">
<title>ItemService&#45;&gt;DropModule</title>
<path fill="none" stroke="black" d="M390.73,-116.84C390.73,-116.84 390.73,-140.52 390.73,-140.52"/>
<polygon fill="black" stroke="black" points="387.23,-140.52 390.73,-150.52 394.23,-140.52 387.23,-140.52"/>
</g>
<!-- OrderService -->
<g id="node3" class="node">
<title>OrderService</title>
<ellipse fill="#fdb462" stroke="black" cx="294" cy="-104" rx="62.52" ry="18"/>
<text text-anchor="middle" x="294" y="-99.8" font-family="Times,serif" font-size="14.00">OrderService</text>
</g>
<!-- OrderService&#45;&gt;DropModule -->
<g id="edge3" class="edge">
<title>OrderService&#45;&gt;DropModule</title>
<path fill="none" stroke="black" d="M337.67,-117.15C337.67,-117.15 337.67,-140.69 337.67,-140.69"/>
<polygon fill="black" stroke="black" points="334.17,-140.69 337.67,-150.69 341.17,-140.69 334.17,-140.69"/>
</g>
<!-- RemunerationService -->
<g id="node4" class="node">
<title>RemunerationService</title>
<ellipse fill="#fdb462" stroke="black" cx="119" cy="-104" rx="94.9" ry="18"/>
<text text-anchor="middle" x="119" y="-99.8" font-family="Times,serif" font-size="14.00">RemunerationService</text>
</g>
<!-- RemunerationService&#45;&gt;DropModule -->
<g id="edge4" class="edge">
<title>RemunerationService&#45;&gt;DropModule</title>
<path fill="none" stroke="black" d="M119,-122.11C119,-141.34 119,-169 119,-169 119,-169 308.81,-169 308.81,-169"/>
<polygon fill="black" stroke="black" points="308.81,-172.5 318.81,-169 308.81,-165.5 308.81,-172.5"/>
</g>
</g>
</svg>
